close-tab
--------------------------------------------------------------------------------

Fields are:

:code:`match (default: None)`
  Which tab to close

:code:`self (default: False)`
  Boolean indicating whether to close the window the command is run in



close-window
--------------------------------------------------------------------------------

Fields are:

:code:`match (default: None)`
  Which window to close

:code:`self (default: False)`
  Boolean indicating whether to close the window the command is run in



create-marker
--------------------------------------------------------------------------------

Fields are:

:code:`match (default: None)`
  Which window to create the marker in

:code:`self (default: False)`
  Boolean indicating whether to create marker in the window the command is run in

:code:`marker_spec (optional)`
  A list or arguments that define the marker specification, for example: ['text', '1', 'ERROR']



detach-tab
--------------------------------------------------------------------------------

Fields are:

:code:`match (default: None)`
  Which tab to detach

:code:`target (optional)`
  Which OS Window to move the detached tab to

:code:`self (default: False)`
  Boolean indicating whether to detach the tab the command is run in



detach-window
--------------------------------------------------------------------------------

Fields are:

:code:`match (default: None)`
  Which window to detach

:code:`target (optional)`
  Which tab to move the detached window to

:code:`self (default: False)`
  Boolean indicating whether to detach the window the command is run in



disable-ligatures
--------------------------------------------------------------------------------

Fields are:

:code:`strategy (required)`
  One of :code:`never`, :code:`always` or :code:`cursor`

:code:`match_window (optional)`
  Window to change opacity in

:code:`match_tab (default: None)`
  Tab to change opacity in

:code:`all (default: False)`
  Boolean indicating operate on all windows



env
--------------------------------------------------------------------------------

Fields are:

:code:`env (required)`
  dictionary of environment variables to values. Empty values cause the variable to be deleted.



focus-tab
--------------------------------------------------------------------------------

Fields are:

:code:`match (default: None)`
  The tab to focus



focus-window
--------------------------------------------------------------------------------

Fields are:

:code:`match (default: None)`
  The window to focus



get-colors
--------------------------------------------------------------------------------

Fields are:

:code:`match (default: None)`
  The window to get the colors for

:code:`configured (default: False)`
  Boolean indicating whether to get configured or current colors



get-text
--------------------------------------------------------------------------------

Fields are:

:code:`match (default: None)`
  The tab to focus

:code:`extent (default: screen)`
  One of :code:`screen`, :code:`all`, or :code:`selection`

:code:`ansi (default: False)`
  Boolean, if True send ANSI formatting codes

:code:`self (default: False)`
  Boolean, if True use window command was run in



goto-layout
--------------------------------------------------------------------------------

Fields are:

:code:`layout (required)`
  The new layout name

:code:`match (default: None)`
  Which tab to change the layout of



kitten
--------------------------------------------------------------------------------

Fields are:

:code:`kitten (required)`
  The name of the kitten to run

:code:`args (optional)`
  Arguments to pass to the kitten as a list

:code:`match (default: None)`
  The window to run the kitten over



last-used-layout
--------------------------------------------------------------------------------

Fields are:

:code:`match (default: None)`
  Which tab to change the layout of

:code:`all (default: False)`
  Boolean to match all tabs



launch
--------------------------------------------------------------------------------

Fields are:

:code:`args (required)`
  The command line to run in the new window, as a list, use an empty list to run the default shell

:code:`match (default: None)`
  The tab to open the new window in

:code:`window_title (default: None)`
  Title for the new window

:code:`cwd (default: None)`
  Working directory for the new window

:code:`env (default: [])`
  List of environment variables of the form NAME=VALUE

:code:`tab_title (default: None)`
  Title for the new tab

:code:`type (default: window)`
  The type of window to open

:code:`keep_focus (default: False)`
  Boolean indicating whether the current window should retain focus or not

:code:`copy_colors (default: False)`
  Boolean indicating whether to copy the colors from the current window

:code:`copy_cmdline (default: False)`
  Boolean indicating whether to copy the cmdline from the current window

:code:`copy_env (default: False)`
  Boolean indicating whether to copy the environ from the current window

:code:`location (default: default)`
  Where in the tab to open the new window

:code:`allow_remote_control (default: False)`
  Boolean indicating whether to allow remote control from the new window

:code:`stdin_source (default: none)`
  Where to get stdin for thew process from

:code:`stdin_add_formatting (default: False)`
  Boolean indicating whether to add formatting codes to stdin

:code:`stdin_add_line_wrap_markers (default: False)`
  Boolean indicating whether to add line wrap markers to stdin

:code:`no_response (default: False)`
  Boolean indicating whether to send back the window id

:code:`marker (default: None)`
  Specification for marker for new window, for example: "text 1 ERROR"



ls
--------------------------------------------------------------------------------

Fields are:

:code:`all_env_vars (default: False)`
  Whether to send all environment variables for ever window rather than just differing ones



new-window
--------------------------------------------------------------------------------

Fields are:

:code:`args (required)`
  The command line to run in the new window, as a list, use an empty list to run the default shell

:code:`match (default: None)`
  The tab to open the new window in

:code:`title (default: None)`
  Title for the new window

:code:`cwd (default: None)`
  Working directory for the new window

:code:`tab_title (default: None)`
  Title for the new tab

:code:`window_type (default: kitty)`
  One of :code:`kitty` or :code:`os`

:code:`keep_focus (default: False)`
  Boolean indicating whether the current window should retain focus or not



remove-marker
--------------------------------------------------------------------------------

Fields are:

:code:`match (default: None)`
  Which window to remove the marker from

:code:`self (default: False)`
  Boolean indicating whether to detach the window the command is run in



resize-window
--------------------------------------------------------------------------------

Fields are:

:code:`match (default: None)`
  Which window to resize

:code:`self (default: False)`
  Boolean indicating whether to close the window the command is run in

:code:`increment (default: 2)`
  Integer specifying the resize increment

:code:`axis (default: horizontal)`
  One of :code:`horizontal, vertical` or :code:`reset`



scroll-window
--------------------------------------------------------------------------------

Fields are:

:code:`amount (required)`
  The amount to scroll, a two item list with the first item being              either a number or the keywords, start and end.              And the second item being either 'p' for pages or 'l' for lines.

:code:`match (default: None)`
  The window to scroll



send-text
--------------------------------------------------------------------------------

Fields are:

:code:`data (required)`
  The data being sent. Can be either: text: followed by text or base64: followed by standard base64 encoded bytes

:code:`match (default: None)`
  A string indicating the window to send text to

:code:`match_tab (default: None)`
  A string indicating the tab to send text to

:code:`all (default: False)`
  A boolean indicating all windows should be matched.

:code:`exclude_active (default: False)`
  A boolean that prevents sending text to the active window



set-background-image
--------------------------------------------------------------------------------

Fields are:

:code:`data (required)`
  Chunk of at most 512 bytes of PNG data, base64 encoded. Must send an empty chunk to indicate end of image.     Or the special value - to indicate image must be removed.

:code:`img_id (required)`
  Unique uuid (as string) used for chunking

:code:`match (default: None)`
  Window to change opacity in

:code:`layout (default: None)`
  The image layout

:code:`all (default: False)`
  Boolean indicating operate on all windows

:code:`configured (default: False)`
  Boolean indicating if the configured value should be changed



set-background-opacity
--------------------------------------------------------------------------------

Fields are:

:code:`opacity (required)`
  A number between 0.1 and 1

:code:`match_window (optional)`
  Window to change opacity in

:code:`match_tab (default: None)`
  Tab to change opacity in

:code:`all (default: False)`
  Boolean indicating operate on all windows



set-colors
--------------------------------------------------------------------------------

Fields are:

:code:`colors (required)`
  An object mapping names to colors as 24-bit RGB integers

:code:`cursor_text_color (optional)`
  A 24-bit color for text under the cursor, or null to use background.

:code:`match_window (optional)`
  Window to change colors in

:code:`match_tab (default: None)`
  Tab to change colors in

:code:`all (default: False)`
  Boolean indicating change colors everywhere or not

:code:`configured (default: False)`
  Boolean indicating whether to change the configured colors. Must be True if reset is True

:code:`reset (default: False)`
  Boolean indicating colors should be reset to startup values



set-font-size
--------------------------------------------------------------------------------

Fields are:

:code:`size (required)`
  The new font size in pts (a positive number)

:code:`all (default: False)`
  Boolean whether to change font size in the current window or all windows

:code:`increment_op (optional)`
  The string ``+`` or ``-`` to interpret size as an increment



set-spacing
--------------------------------------------------------------------------------

Fields are:

:code:`settings (required)`
  An object mapping margins/paddings using canonical form {'margin-top': 50, 'padding-left': null} etc

:code:`match_window (optional)`
  Window to change colors in

:code:`match_tab (default: None)`
  Tab to change colors in

:code:`all (default: False)`
  Boolean indicating change colors everywhere or not

:code:`configured (default: False)`
  Boolean indicating whether to change the configured colors. Must be True if reset is True



set-tab-title
--------------------------------------------------------------------------------

Fields are:

:code:`title (required)`
  The new title

:code:`match (default: None)`
  Which tab to change the title of



set-window-title
--------------------------------------------------------------------------------

Fields are:

:code:`title (optional)`
  The new title

:code:`match (default: None)`
  Which windows to change the title in

:code:`temporary (default: False)`
  Boolean indicating if the change is temporary or permanent



signal-child
--------------------------------------------------------------------------------

Fields are:

:code:`signals (optional)`
  The signals, a list of names, such as SIGTERM, SIGKILL, SIGUSR1, etc.

:code:`match (default: None)`
  Which windows to change the title in



